<svg xmlns="http://www.w3.org/2000/svg" width="64" height="64" viewBox="0 0 64 64">
    <path fill="#FFF" fill-rule="evenodd" d="M38.705 11.157c1.793-1.631 4.392-2.327 7.658-2.159a2 2 0 0 1 1.694 2.876c-.634 1.298-.965 2.28-1.06 2.858 2.984 2.405 4.181 5.143 3.19 7.955l5.79 15.56a2 2 0 0 1-.737 2.342c-5.622 3.892-10.032 3.892-11.443-1.1l-.08-.273c-.667-2.118-1.752-2.853-3.662-2.645-3.23.408-5.822 0-7.702-1.34-.124.096-.268.22-.425.37-.915.875-1.962 2.338-2.86 4.053-2.165 4.136-2.99 8.623-1.895 11.958a2 2 0 0 1-3.801 1.246c-1.484-4.522-.468-10.054 2.152-15.059 2.679-5.117 6.21-8.492 8.885-6.04l.15.127c.934.737 2.57 1.022 5.029.712 4.038-.439 6.888 1.66 8.058 5.803l.039.125c.391 1.174 1.362 1.271 3.989-.372l-5.513-14.819a2 2 0 0 1 .092-1.605l.07-.147c.534-1.229-.076-2.496-2.422-4.181a2 2 0 0 1-.751-1.058c-.267-.905-.223-1.938.1-3.142l-.316.087c-.918.282-1.579.747-2.018 1.379l-.117.151a2 2 0 0 1-1.843.68c-11.039-1.78-19.82 2.149-26.647 11.965a2 2 0 0 1-3.284-2.284C16.484 14.456 26.39 9.803 38.466 11.386zM40.667 20a2 2 0 1 1 0 4 2 2 0 0 1 0-4z"/>
</svg>
