<svg xmlns="http://www.w3.org/2000/svg" xmlns:xlink="http://www.w3.org/1999/xlink" width="120" height="100" viewBox="0 0 120 100">
    <defs>
        <filter id="a" width="164.3%" height="174%" x="-32.1%" y="-37%" filterUnits="objectBoundingBox">
            <feOffset dy="2" in="SourceAlpha" result="shadowOffsetOuter1"/>
            <feGaussianBlur in="shadowOffsetOuter1" result="shadowBlurOuter1" stdDeviation="6"/>
            <feColorMatrix in="shadowBlurOuter1" result="shadowMatrixOuter1" values="0 0 0 0 0.960824275 0 0 0 0 0.458726425 0 0 0 0 0.127481315 0 0 0 0.496530813 0"/>
            <feMerge>
                <feMergeNode in="shadowMatrixOuter1"/>
                <feMergeNode in="SourceGraphic"/>
            </feMerge>
        </filter>
        <path id="b" d="M.001.095H83.5v56.86H0z"/>
        <path id="d" d="M.049.774h24.817v8.772H.05z"/>
    </defs>
    <g fill="none" fill-rule="evenodd">
        <circle cx="70" cy="53" r="45" fill="#FFE8CF"/>
        <g filter="url(#a)" transform="translate(8 14)">
            <path fill="#2C3D50" d="M74.282 66.086H70.59c-1.914 0-3.467 1.356-3.467 3.012v.113c0 1.656 1.553 3.012 3.467 3.012h3.69c1.915 0 3.464-1.356 3.464-3.012v-.113c0-1.656-1.55-3.012-3.463-3.012M12.915 66.031h-3.69c-1.914 0-3.468 1.34-3.468 3.012v.097c0 1.668 1.554 3.016 3.468 3.016h3.69c1.919 0 3.468-1.348 3.468-3.016v-.097c0-1.672-1.55-3.012-3.468-3.012"/>
            <g transform="translate(0 11.329)">
                <mask id="c" fill="#fff">
                    <use xlink:href="#b"/>
                </mask>
                <path fill="#F1C30F" d="M79.048.095H4.458a4.462 4.462 0 0 0-4.457 4.46v47.937a4.465 4.465 0 0 0 4.457 4.464h74.59c2.458 0 4.453-2.006 4.453-4.464V4.555a4.46 4.46 0 0 0-4.453-4.46" mask="url(#c)"/>
            </g>
            <path fill="#C8CDD2" d="M66.63 26.355a3.795 3.795 0 0 0-1.196-.196h-9.057c-.421 0-.819.072-1.196.196-1.586.493-2.733 1.961-2.733 3.69v8.335a3.878 3.878 0 0 0 2.733 3.703c.377.128.775.184 1.196.184h3.744V40.72h-3.744c-.433 0-.847-.125-1.196-.321a2.357 2.357 0 0 1-1.16-2.018v-8.335c0-.842.467-1.592 1.16-2.005.349-.197.763-.321 1.196-.321h9.057c.433 0 .847.124 1.196.32.69.414 1.16 1.164 1.16 2.006v8.335c0 .855-.47 1.6-1.16 2.018-.349.196-.763.32-1.196.32h-3.748v1.55h3.748c.421 0 .819-.057 1.196-.185a3.875 3.875 0 0 0 2.73-3.703v-8.335a3.871 3.871 0 0 0-2.73-3.69"/>
            <path fill="#ECF0F0" d="M61.687 36.5a.776.776 0 0 0-.783-.774.776.776 0 0 0-.782.774V43.993c0 .417.348.778.782.778a.788.788 0 0 0 .783-.778V36.5z"/>
            <path fill="#4B4B4B" d="M60.903 46.277c.52 0 .937.413.937.923a.93.93 0 0 1-.937.926.932.932 0 0 1-.937-.926c0-.51.422-.923.937-.923M60.903 51.985c.52 0 .937.413.937.938 0 .514-.418.93-.937.93a.936.936 0 1 1 0-1.868"/>
            <path fill="#C96158" d="M65.056 56.889l-3.594 3.513a.833.833 0 0 1-.56.221.856.856 0 0 1-.559-.22l-3.59-3.554-1.573-1.557v12.892h11.45V55.356l-1.574 1.533z"/>
            <path fill="#E67365" d="M55.18 11.533v14.82a3.795 3.795 0 0 1 1.196-.196H65.432c.422 0 .82.073 1.197.197V11.533h-11.45zM65.056 27.718h-8.679c-.434 0-.848.125-1.197.321v12.358c.35.197.763.321 1.197.321H60.12v-4.22c0-.428.349-.773.783-.773.434 0 .782.345.782.774v4.22h3.748c.434 0 .847-.125 1.196-.322V28.04a2.453 2.453 0 0 0-1.196-.32h-.377zM60.903 48.126a.931.931 0 0 1-.937-.923c0-.513.422-.926.937-.926a.93.93 0 0 1 .937.926c0 .51-.418.923-.937.923zm0 5.728a.936.936 0 1 1 0-1.87c.52 0 .937.41.937.94 0 .513-.418.93-.937.93zm.783-11.588v1.729a.787.787 0 0 1-.783.774.787.787 0 0 1-.783-.774v-1.73h-3.743c-.422 0-.82-.055-1.196-.184V55.29l1.573 1.56 3.59 3.554a.829.829 0 0 0 1.12 0l3.592-3.554v.04l1.574-1.532V42.081a3.679 3.679 0 0 1-1.197.185h-3.747z"/>
            <path fill="#C8CDD2" d="M28.32 26.355a3.789 3.789 0 0 0-1.192-.196h-9.052a3.84 3.84 0 0 0-1.2.196c-1.583.493-2.73 1.961-2.73 3.69v8.335a3.88 3.88 0 0 0 2.73 3.703 3.72 3.72 0 0 0 1.2.184h3.739V40.72h-3.739c-.434 0-.852-.125-1.2-.321a2.357 2.357 0 0 1-1.16-2.018v-8.335c0-.842.466-1.592 1.16-2.005.348-.197.766-.321 1.2-.321h9.052c.438 0 .843.124 1.192.32a2.33 2.33 0 0 1 1.16 2.006v8.335c0 .855-.458 1.6-1.16 2.018-.349.196-.754.32-1.192.32h-3.74v1.55h3.74c.417 0 .815-.057 1.192-.185a3.88 3.88 0 0 0 2.741-3.703v-8.335c0-1.729-1.151-3.197-2.741-3.69"/>
            <path fill="#ECF0F0" d="M23.387 36.5a.776.776 0 0 0-.783-.774.783.783 0 0 0-.79.774V43.993c0 .417.357.778.79.778a.788.788 0 0 0 .783-.778V36.5z"/>
            <path fill="#4B4B4B" d="M22.603 46.277c.519 0 .937.413.937.923a.93.93 0 0 1-.937.926.93.93 0 0 1-.941-.926.93.93 0 0 1 .94-.923M22.603 51.985c.519 0 .937.413.937.938 0 .514-.418.93-.937.93a.934.934 0 1 1 0-1.868"/>
            <path fill="#C96158" d="M26.755 56.889l-3.601 3.513a.828.828 0 0 1-.552.221.825.825 0 0 1-.56-.22l-3.588-3.554-1.582-1.557v12.892H28.32V55.356l-1.566 1.533z"/>
            <path fill="#E67365" d="M16.874 11.533v14.82a3.84 3.84 0 0 1 1.2-.196H27.127c.417 0 .815.073 1.192.197V11.533H16.874zM26.755 27.718h-8.683c-.43 0-.851.125-1.2.321v12.358c.349.197.77.321 1.2.321h3.744v-4.22a.78.78 0 0 1 .786-.773c.434 0 .783.345.783.774v4.22h3.74c.441 0 .847-.125 1.196-.322V28.04a2.429 2.429 0 0 0-1.197-.32h-.369zM22.603 48.126a.93.93 0 0 1-.941-.923.93.93 0 0 1 .94-.926.93.93 0 0 1 .938.926c0 .51-.418.923-.937.923zm0 5.728a.934.934 0 1 1 0-1.87c.519 0 .937.41.937.94 0 .513-.418.93-.937.93zm.783-11.588v1.729a.787.787 0 0 1-.783.774.79.79 0 0 1-.787-.774v-1.73h-3.743a3.72 3.72 0 0 1-1.2-.184V55.29l1.581 1.56 3.59 3.554a.821.821 0 0 0 1.11 0l3.602-3.554v.04l1.565-1.532V42.081a3.679 3.679 0 0 1-1.196.185h-3.74z"/>
            <path fill="#40BDBD" d="M79.72 23.7l-2.053-1.866.373-2.727c.029-.14-.04-.277-.158-.373a.412.412 0 0 0-.414-.012l-2.425 1.355-2.502-1.187a.394.394 0 0 0-.414.024.42.42 0 0 0-.138.39l.556 2.695-1.926 1.973a.39.39 0 0 0-.09.405.378.378 0 0 0 .329.26l2.762.306 1.302 2.43a.404.404 0 0 0 .352.197h.013a.37.37 0 0 0 .344-.225l1.152-2.503 2.742-.48a.38.38 0 1 0 .195-.662"/>
            <path fill="#9B5AB6" d="M49.289 42.141c-2.53 0-5.548 1.312-8.095 3.51-2.028 1.769-3.528 3.887-4.218 5.972-.73 2.158-.515 4.035.596 5.311.844.939 2.113 1.44 3.679 1.44 2.53 0 5.564-1.316 8.095-3.514 2.023-1.757 3.536-3.87 4.234-5.972.713-2.154.502-4.035-.617-5.299-.835-.95-2.109-1.448-3.674-1.448"/>
            <path fill="#E67365" d="M41.196 19.508l-4.433 12.495L49.93 29.56z"/>
            <path fill="#95A5A5" d="M8.892 46.415c-1.091-1.553-3.902-6.583-3.93-6.623-.097-.164-.292-.252-.475-.18a.386.386 0 0 0-.247.44c.008.057 1.172 5.765 1.355 7.63l.024.24c.114 1.116.154 1.577-.053 9.359 0 .208.138.373.333.4h.057a.382.382 0 0 0 .38-.292c.297-1.163 1.408-4.296 2.95-4.866.194-.068.433-.108.68-.108 1.886 0 4.498 1.865 4.522 1.881.163.12.386.109.524-.048.13-.148.142-.369 0-.51-.04-.067-5.05-5.791-6.12-7.323"/>
            <g transform="translate(29.292 .025)">
                <mask id="e" fill="#fff">
                    <use xlink:href="#d"/>
                </mask>
                <path fill="#2C3D50" d="M24.84 7.842c-.328-1.436-1.322-4.91-3.536-6.029-1.083-.537-3.42-.826-5.751-.967C15.285.75 9.628.75 9.36.846c-2.336.14-4.656.43-5.747.967C1.403 2.933.406 6.406.077 7.842c-.182.786.543 1.548 1.622 1.676.102.028.207.028.32.028.942 0 1.777-.513 1.94-1.219.397-1.737 1.289-3.718 1.865-4.091.681-.265 3.524-.51 6.639-.594 3.13.084 5.953.329 6.639.594.576.373 1.46 2.306 1.857 4.091.166.706.994 1.22 1.943 1.22.105 0 .21 0 .324-.029 1.075-.128 1.789-.89 1.614-1.676" mask="url(#e)"/>
            </g>
        </g>
    </g>
</svg>
