<svg xmlns="http://www.w3.org/2000/svg" width="64" height="64" viewBox="0 0 64 64">
    <path fill="#FFF" fill-rule="evenodd" d="M36.667 11.778a2 2 0 0 1 2 2l-.001 3.555H44A2.667 2.667 0 0 1 46.667 20v2h4.666a2 2 0 0 1 1.995 1.85l.005.15a2 2 0 0 1-2 2h-4.666v4h4.666a2 2 0 0 1 1.995 1.85l.005.15a2 2 0 0 1-2 2h-4.666v4h4.666a2 2 0 0 1 1.995 1.85l.005.15a2 2 0 0 1-2 2h-4.666v2A2.667 2.667 0 0 1 44 46.667l-5.334-.001v3.556a2 2 0 0 1-1.85 1.995l-.15.005a2 2 0 0 1-2-2v-3.556H28v3.556a2 2 0 0 1-1.85 1.995l-.15.005a2 2 0 0 1-2-2v-3.556h-4A2.667 2.667 0 0 1 17.333 44v-2h-4.666a2 2 0 0 1-1.995-1.85l-.005-.15a2 2 0 0 1 2-2h4.666v-4h-4.666a2 2 0 0 1-1.995-1.85l-.005-.15a2 2 0 0 1 2-2h4.666v-4h-4.666a2 2 0 0 1-1.995-1.85l-.005-.15a2 2 0 0 1 2-2h4.666v-2A2.667 2.667 0 0 1 20 17.333h4v-3.555a2 2 0 0 1 1.85-1.995l.15-.005a2 2 0 0 1 2 2v3.555h6.666v-3.555a2 2 0 0 1 1.851-1.995zm6 9.555H21.333v21.334h21.334V21.333zM37.333 24A2.667 2.667 0 0 1 40 26.667v10.666A2.667 2.667 0 0 1 37.333 40H26.667A2.667 2.667 0 0 1 24 37.333V26.667A2.667 2.667 0 0 1 26.667 24h10.666zM36 28h-8v8h8v-8z"/>
</svg>
