<svg xmlns="http://www.w3.org/2000/svg" width="64" height="64" viewBox="0 0 64 64">
    <path fill="#FFF" fill-rule="evenodd" d="M12.912 28h38.176c1.188 0 2.161.987 2.24 2.236l.005.164v19.2c0 1.27-.923 2.31-2.092 2.394l-.153.006-13.474 1.333c-.793.002-1.523-.443-1.928-1.162l-.082-.158-2.638-5.637a1.11 1.11 0 0 0-.966-.588c-.41 0-.782.237-.98.613l-.053.116-2.571 5.496c-.357.757-1.058 1.253-1.841 1.314l-.169.006L12.912 52c-1.188 0-2.161-.987-2.24-2.236l-.005-.164V30.4c0-1.27.923-2.31 2.092-2.394l.153-.006h38.176zm36.421 4H14.667v16l10.566 1.333 2.194-4.69c.855-1.719 2.601-2.855 4.573-2.855 1.99 0 3.748 1.156 4.595 2.9l.093.204 2.078 4.441L49.333 48V32zm-6.666 5.333a2.667 2.667 0 1 1 0 5.334 2.667 2.667 0 0 1 0-5.334zm-21.334 0a2.667 2.667 0 1 1 0 5.334 2.667 2.667 0 0 1 0-5.334zm10-30.666a2.9 2.9 0 0 1 1.187.264l.187.093 5.872 3.296.185.107a2.667 2.667 0 0 1 1.23 2.092l.006.186v6.59a2.72 2.72 0 0 1-1.243 2.278l-.159.096-5.912 3.319c-.41.22-.89.345-1.353.345a2.9 2.9 0 0 1-1.186-.264l-.188-.093-5.89-3.307a2.726 2.726 0 0 1-1.396-2.19l-.006-.184v-6.59a2.72 2.72 0 0 1 1.243-2.278l.159-.096 5.911-3.319c.41-.22.891-.345 1.353-.345zm-6 7.526v5.102c0 .01.005.02.017.032l.024.017L30 21.94v-5.156l-4.667-2.592zm12.002-.038l-4.668 2.624v5.162l4.626-2.597a.085.085 0 0 0 .037-.034l.003-.015.002-5.14zm-6.011-4.82l-.06.014-4.556 2.558 4.621 2.566 4.597-2.585-4.503-2.528a.267.267 0 0 0-.069-.023l-.03-.003z"/>
</svg>
