<svg xmlns="http://www.w3.org/2000/svg" width="120" height="100" viewBox="0 0 120 100">
    <defs>
        <filter id="a" width="157.7%" height="214.3%" x="-28.9%" y="-57.1%" filterUnits="objectBoundingBox">
            <feOffset dy="2" in="SourceAlpha" result="shadowOffsetOuter1"/>
            <feGaussianBlur in="shadowOffsetOuter1" result="shadowBlurOuter1" stdDeviation="6"/>
            <feColorMatrix in="shadowBlurOuter1" result="shadowMatrixOuter1" values="0 0 0 0 0.710033525 0 0 0 0 0.388726408 0 0 0 0 0.96337183 0 0 0 0.500464379 0"/>
            <feMerge>
                <feMergeNode in="shadowMatrixOuter1"/>
                <feMergeNode in="SourceGraphic"/>
            </feMerge>
        </filter>
    </defs>
    <g fill="none" fill-rule="evenodd">
        <circle cx="70" cy="53" r="45" fill="#F8E8FF"/>
        <g filter="url(#a)" transform="translate(1 26)">
            <path fill="#D793FD" fill-rule="nonzero" stroke="#D793FD" stroke-linecap="round" d="M81.958 3.495C82.172 1.565 83.916 0 85.846 0h8.77c1.932 0 2.865 1.425 2.08 3.187l-5.59 12.563H80.595l1.364-12.255z"/>
            <path fill="#9D57C4" fill-rule="nonzero" stroke="#9D57C4" stroke-linecap="round" d="M36.793 35h33.29v8.747A5.247 5.247 0 0 1 64.825 49H42.049a5.25 5.25 0 0 1-5.256-5.253V35z"/>
            <path stroke="#FFDC82" stroke-linecap="square" d="M42.05 43.75H43.8m5.256 0h1.753m5.256 0h1.752m5.256 0h1.752"/>
            <path fill="#D793FD" fill-rule="nonzero" stroke="#D793FD" stroke-linecap="round" d="M81.958 36.755c.214 1.93 1.958 3.495 3.888 3.495h8.77c1.932 0 2.865-1.425 2.08-3.187L91.107 24.5H80.595l1.364 12.255z"/>
            <path fill="#FE8657" fill-rule="nonzero" stroke="#FE8657" stroke-linecap="round" d="M50.81 38.5c25.158 0 45.553-7.835 45.553-17.5S75.968 3.5 50.81 3.5C25.65 3.5 0 11.335 0 21s25.651 17.5 50.81 17.5z"/>
            <path stroke="#FFDC82" stroke-linecap="round" d="M30.202 5.91s-14.188 17.594 0 30.826"/>
        </g>
    </g>
</svg>
