<svg xmlns="http://www.w3.org/2000/svg" width="120" height="100" viewBox="0 0 120 100">
    <defs>
        <filter id="a" width="168.4%" height="164.3%" x="-34.2%" y="-32.1%" filterUnits="objectBoundingBox">
            <feOffset dy="2" in="SourceAlpha" result="shadowOffsetOuter1"/>
            <feGaussianBlur in="shadowOffsetOuter1" result="shadowBlurOuter1" stdDeviation="6"/>
            <feColorMatrix in="shadowBlurOuter1" result="shadowMatrixOuter1" values="0 0 0 0 0.154720206 0 0 0 0 0.614418386 0 0 0 0 0.951454937 0 0 0 0.496913243 0"/>
            <feMerge>
                <feMergeNode in="shadowMatrixOuter1"/>
                <feMergeNode in="SourceGraphic"/>
            </feMerge>
        </filter>
    </defs>
    <g fill="none" fill-rule="evenodd">
        <circle cx="70" cy="53" r="45" fill="#DEF3FF"/>
        <g filter="url(#a)" transform="translate(10 8)">
            <path fill="#2B9ADE" d="M40.443 1.104C19.778 1.104 3.03 17.75 3.03 38.284c0 1.214.064 2.413.178 3.597 3.116.029 5.916.315 8.611.908 6.788 1.497 13.032 4.43 17.582 8.259 4.051 3.408 8.415 9.431 8.522 16.12.043 2.675-.728 5.263-2.383 7.968 1.606.21 3.24.328 4.903.328 20.658 0 37.406-16.646 37.406-37.18 0-20.535-16.748-37.18-37.406-37.18"/>
            <path fill="#9BCF66" d="M37.844 32.41c-.49 3.14-5.594 2.9-6.809 5.8-.974 2.658.973 5.803 2.92 7.25 5.348 3.383 9.964.728 9.964 9.186 0 4.348-3.887 13.047 1.705 15.219 4.62 1.693 12.4-5.315 14.589-7.972 1.7-2.416 2.184-3.868 4.618-5.8 2.917-2.418 3.89-2.659.729-4.833-2.43-1.692-4.133-.968-5.107-4.35-.487-1.693 1.217-4.35.733-6.282-.733-4.593-6.566-5.319-10.7-7.253-4.377-1.932-7.05-1.932-11.671-1.932l-.971.968z"/>
            <path fill="#9BCF66" d="M66.374 9.947c-2.664 1.373-6.82 1.987-9.09 2.739-6.323 2.42-2.92 2.175-3.404 7.493 1.7.481 3.16-.242 4.133-1.694 1.702 4.837-4.374 3.868-6.562 3.868-1.22 0-2.191-.483-3.407 0-1.945.969.488 4.35-2.188 1.933-1.216-.724-.243-2.9-1.945-4.107-.729-.483-4.619-.727-5.35-.242-2.916 1.933.973 5.074 3.164 6.766 1.7 1.45.971 1.933 3.646 2.42 1.456.238 2.916-.97 4.377-.487 2.915.725 4.132 3.625 7.292 4.593 3.889 1.207 5.834.966 7.539 4.836.971 2.413 1.216 5.07 2.674 7.731 2.43 3.622 5.591 6.038 8.02 1.448 1.07-2.335.454-4.855 3.43-4.445.173-1.483.274-2.989.274-4.516 0-11.229-4.858-21.329-12.603-28.336M18.372 16.977c-2.354-1.75-4.35-3.579-6.74-4.123-4.975 5.564-8.339 12.572-9.378 20.319 2.203-.011 1.368 4.066 4.447 2.657.732-.245 2.43-3.868 3.161-4.836 1.46-1.447 10.698-4.83 6.565-7.007.486-.726.973-.967 1.945-1.21.485 1.452 1.214 2.42 2.674 2.659.974-4.351.974-6.04-2.674-8.459M16.417 12.672c.487 0 4.133-3.38 4.133-3.62 0-1.219-.656-2.063-1.601-2.566a38.333 38.333 0 0 0-5.466 4.438c.925.816 1.577 1.748 2.934 1.748M39.63 0A38.59 38.59 0 0 0 25.3 3.05c.343.213.682.424 1.026.596-1.643 2.72-2.555 3.261-.731 6.525 1.278 2.717 3.28 2.352 5.653 4.528 1.824-1.996.363-2.72.908-4.528.368-1.817 2.01-2.72 3.65-3.447 2.552-1.083 7.11.183 6.564-3.621C42.196 1.784 41.147.746 39.63 0M16.196 63.472l-.01.008c.844 1.785 2.003 3.338 3.232 4.875 2.354 2.943 5.365 5.67 8.374 7.94 2.993 2.257 6.183 4.137 9.554 5.797l.108.112a4.134 4.134 0 0 1-1.488.903c-2.503-1.28-4.79-2.556-7.088-4.262a8.866 8.866 0 0 1-.126-.093c-.08.066-.27.117-.27.117-2.742 1.532-6.062 2.436-9.2 2.132-3.812-.367-7.136-2.539-9.924-4.999C6.408 73.4 4.27 69.93 2.74 66.356 1.33 63.065.703 59.55.28 56.022c-.403-3.382-.298-6.867-.143-10.261.013-.314.02-.629.033-.943l.093.004c.437-.025.871-.032 1.307-.048 3.491-.136 6.9.038 10.317.792 5.568 1.227 11.447 3.724 15.849 7.428C31.675 56.307 35.117 61.68 35.2 67c.057 3.533-1.668 6.57-3.864 9.26-2.572-1.257-5.036-2.923-7.264-4.719-2.301-1.852-4.321-4.073-6.295-6.277-.546-.607-1.07-1.196-1.581-1.793"/>
        </g>
    </g>
</svg>
