<svg xmlns="http://www.w3.org/2000/svg" width="64" height="64" viewBox="0 0 64 64">
    <path fill="#FFF" fill-rule="evenodd" d="M32.182 6.726a2 2 0 0 1 .97 0l16 4a2 2 0 0 1 1.515 1.94v38h6a2 2 0 0 1 1.994 1.851l.006.15a2 2 0 0 1-2 2h-48a2 2 0 1 1 0-4h6v-38a2 2 0 0 1 1.36-1.895l.155-.046zm.485 4.002l-14 3.5v36.439h8v-10a2 2 0 0 1 1.85-1.995l.15-.005h8a2 2 0 0 1 2 2v10h8V14.228l-14-3.5zm2 31.939h-4v8h4v-8zm2-26.667a2 2 0 0 1 2 2v10.667a2 2 0 1 1-4 0v-3.334h-4v3.334a2 2 0 0 1-1.851 1.994l-.15.006a2 2 0 0 1-2-2V18a2 2 0 1 1 4 0v3.333h4V18a2 2 0 0 1 1.851-1.995z"/>
</svg>
